^E:\IKP\INDUSTRIJSKI PROTOKOLI\INDUSTRIJSKI PROTOKOLI\PROJEKAT\IKPPROJEKAT83\PROJEKAT 83 - P2P\PROJEKAT 83 - P2P\WINSOCK_TCP_BLOCKING\DEBUG\LISTLIB.LIB|E:\IKP\INDUSTRIJSKI PROTOKOLI\INDUSTRIJSKI PROTOKOLI\PROJEKAT\IKPPROJEKAT83\PROJEKAT 83 - P2P\PROJEKAT 83 - P2P\WINSOCK_TCP_BLOCKING\DEBUG\SERVERFUNCTIONS.LIB|E:\IKP\INDUSTRIJSKI PROTOKOLI\INDUSTRIJSKI PROTOKOLI\PROJEKAT\IKPPROJEKAT83\PROJEKAT 83 - P2P\PROJEKAT 83 - P2P\WINSOCK_TCP_BLOCKING\DEBUG\TCPLIB.LIB|E:\IKP\INDUSTRIJSKI PROTOKOLI\INDUSTRIJSKI PROTOKOLI\PROJEKAT\IKPPROJEKAT83\PROJEKAT 83 - P2P\PROJEKAT 83 - P2P\WINSOCK_TCP_BLOCKING\WINSOCKSERVER\DEBUG\SERVER.OBJ
C:\PROGRAM FILES (X86)\WINDOWS KITS\10\LIB\10.0.19041.0\UM\X86\WS2_32.LIB
E:\IKP\INDUSTRIJSKI PROTOKOLI\INDUSTRIJSKI PROTOKOLI\PROJEKAT\IKPPROJEKAT83\PROJEKAT 83 - P2P\PROJEKAT 83 - P2P\WINSOCK_TCP_BLOCKING\WINSOCKSERVER\DEBUG\SERVER.OBJ
E:\IKP\INDUSTRIJSKI PROTOKOLI\INDUSTRIJSKI PROTOKOLI\PROJEKAT\IKPPROJEKAT83\PROJEKAT 83 - P2P\PROJEKAT 83 - P2P\WINSOCK_TCP_BLOCKING\DEBUG\LISTLIB.LIB
E:\IKP\INDUSTRIJSKI PROTOKOLI\INDUSTRIJSKI PROTOKOLI\PROJEKAT\IKPPROJEKAT83\PROJEKAT 83 - P2P\PROJEKAT 83 - P2P\WINSOCK_TCP_BLOCKING\DEBUG\SERVERFUNCTIONS.LIB
E:\IKP\INDUSTRIJSKI PROTOKOLI\INDUSTRIJSKI PROTOKOLI\PROJEKAT\IKPPROJEKAT83\PROJEKAT 83 - P2P\PROJEKAT 83 - P2P\WINSOCK_TCP_BLOCKING\DEBUG\TCPLIB.LIB
E:\IKP\INDUSTRIJSKI PROTOKOLI\INDUSTRIJSKI PROTOKOLI\PROJEKAT\IKPPROJEKAT83\PROJEKAT 83 - P2P\PROJEKAT 83 - P2P\WINSOCK_TCP_BLOCKING\WINSOCKSERVER\DEBUG\WINSOCKSERVER.ILK
C:\WINDOWS\SYSTEM32\TZRES.DLL
C:\WINDOWS\GLOBALIZATION\SORTING\SORTDEFAULT.NLS
C:\PROGRAM FILES (X86)\WINDOWS KITS\10\LIB\10.0.19041.0\UM\X86\UUID.LIB
C:\PROGRAM FILES (X86)\MICROSOFT VISUAL STUDIO\2019\COMMUNITY\VC\TOOLS\MSVC\14.29.30133\LIB\X86\MSVCRTD.LIB
C:\PROGRAM FILES (X86)\MICROSOFT VISUAL STUDIO\2019\COMMUNITY\VC\TOOLS\MSVC\14.29.30133\LIB\X86\OLDNAMES.LIB
C:\PROGRAM FILES (X86)\WINDOWS KITS\10\LIB\10.0.19041.0\UM\X86\KERNEL32.LIB
C:\PROGRAM FILES (X86)\MICROSOFT VISUAL STUDIO\2019\COMMUNITY\VC\TOOLS\MSVC\14.29.30133\LIB\X86\VCRUNTIMED.LIB
C:\PROGRAM FILES (X86)\WINDOWS KITS\10\LIB\10.0.19041.0\UCRT\X86\UCRTD.LIB
